%YAML 1.1
%TAG !u! tag:unity3d.com,2011:
--- !u!114 &11400000
MonoBehaviour:
  m_ObjectHideFlags: 0
  m_CorrespondingSourceObject: {fileID: 0}
  m_PrefabInstance: {fileID: 0}
  m_PrefabAsset: {fileID: 0}
  m_GameObject: {fileID: 0}
  m_Enabled: 1
  m_EditorHideFlags: 0
  m_Script: {fileID: 11500000, guid: 3b78a2ab43db15844acfd0e1ba5dca32, type: 3}
  m_Name: Jupiter
  m_EditorClassIdentifier: 
  Gravity: -24.5
  SkyColor: {r: 0.9528302, g: 0.65494084, b: 0.03146139, a: 0}
